…
cor(t$beta1, t$beta2)
t.test(t$beta1, t$beta2, paired = T)
mean(t$abs_beta.diff)


```

Plot betas of genotyping array (UKBB vs. UKBL) analyses
# NOTE: gneotyping array is encapsulated / explained by the chip batch variable, 
# so not necessary to include but for posterity:
```{r}
# > k %>% count(genotyping.array, Batch)
# # A tibble: 106 × 3
#    genotyping.array Batch          n
#    <chr>            <chr>      <int>
#  1 UKBB             Batch_b001  3782
#  2 UKBB             Batch_b002  3905
#  3 UKBB             Batch_b003  3774
#  4 UKBB             Batch_b004  3976
#  5 UKBB             Batch_b005  3794
#  6 UKBB             Batch_b006  3935
#  7 UKBB             Batch_b007  4044
#  8 UKBB             Batch_b008  3968
#  9 UKBB             Batch_b009  3838
# 10 UKBB             Batch_b010  3946
# # … with 96 more rows

# > k %>% count(Batch)
# # A tibble: 106 × 2
#    Batch          n
#    <chr>      <int>
#  1 Batch_b001  3782
#  2 Batch_b002  3905
#  3 Batch_b003  3774
#  4 Batch_b004  3976
#  5 Batch_b005  3794
#  6 Batch_b006  3935
#  7 Batch_b007  4044
#  8 Batch_b008  3968
#  9 Batch_b009  3838
# 10 Batch_b010  3946
# # … with 96 more rows
…
